{
  "globalDependencies": {
    "boom": "registry:dt/boom#0.0.0+20160724101333",
    "bunyan": "registry:dt/bunyan#0.0.0+20160412155112",
    "cookies": "registry:dt/cookies#0.5.1+20160316171810",
    "joi": "registry:dt/joi#9.0.0+20160626220651",
    "koa": "registry:dt/koa#2.0.0+20160724024233",
    "koa-bodyparser": "registry:dt/koa-bodyparser#3.0.0+20160414124440",
    "koa-compose": "registry:dt/koa-compose#3.0.0+20160316171810",
    "koa-json": "registry:dt/koa-json#2.0.0+20160412125208",
    "koa-router": "registry:dt/koa-router#7.0.0+20160812160355",
    "lodash": "registry:dt/lodash#4.14.0+20160830145422",
    "mime": "registry:dt/mime#0.0.0+20160316155526",
    "mocha": "registry:dt/mocha#2.2.5+20160720003353",
    "node": "registry:dt/node#6.0.0+20160801161248",
    "node-uuid": "registry:dt/node-uuid#0.0.0+20160316155526",
    "node-uuid/node-uuid-base": "registry:dt/node-uuid/node-uuid-base#0.0.0+20160316155526",
    "node-uuid/node-uuid-cjs": "registry:dt/node-uuid/node-uuid-cjs#0.0.0+20160316155526"
  },
  "devDependencies": {
    "nock": "registry:dt/nock#8.2.0+20161116174740"
  }
}
